{
  "Local": [
    {
      "id": 1,
      "Dorsal": 7,
      "Nombre": "Cristiano Ronaldo ",
      "Posicion": "Delantero"
    },
    {
      "id": 2,
      "Dorsal": 11,
      "Nombre": "Sancho",
      "Posicion": "Lateral Derecho"
    },
    {
      "id": 3,
      "Dorsal": 9,
      "Nombre": "Rashford",
      "Posicion": "Lateral Izquierdo"
    },
    {
      "id": 4,
      "Dorsal": 10,
      "Nombre": "Messi",
      "Posicion": "Mediocampista ofensivo"
    },
    {
      "id": 5,
      "Dorsal": 12,
      "Nombre": "Kimmich",
      "Posicion": "Mediocampista defensivo"
    },
    {
      "id": 6,
      "Dorsal": 6,
      "Nombre": "Guardiola",
      "Posicion": "Mediocampista"
    },
    {
      "id": 7,
      "Dorsal": 17,
      "Nombre": "Alphonso Davies",
      "Posicion": "Volante Izquierdo"
    },
    {
      "id": 8,
      "Dorsal": 4,
      "Nombre": "Virgil van Dijk",
      "Posicion": "Central"
    },
    {
      "id": 9,
      "Dorsal": 3,
      "Nombre": "Kimpembe",
      "Posicion": "Central"
    },
    {
      "id": 10,
      "Dorsal": 66,
      "Nombre": "Alexander-Arnold",
      "Posicion": "Volante Derecho"
    },
    {
      "id": 11,
      "Dorsal": 13,
      "Nombre": "Jan Oblak",
      "Posicion": "Portero"
    },
    {
      "id": 1632939375330
    }
  ]
}